\relax 
\@writefile{toc}{\contentsline {section}{\numberline {1}Opis projektu}{2}}
\@writefile{toc}{\contentsline {section}{\numberline {2}Plan pracy}{2}}
\@writefile{toc}{\contentsline {subsection}{\numberline {2.1}Harmonogram}{2}}
\@writefile{toc}{\contentsline {subsection}{\numberline {2.2}Kamienie milowe}{2}}
\@writefile{toc}{\contentsline {subsection}{\numberline {2.3}Wykres Gantta}{3}}
\@writefile{lof}{\contentsline {figure}{\numberline {1}{\ignorespaces Diagram Gantta pracy w projekcie}}{3}}
\@writefile{toc}{\contentsline {section}{\numberline {3}Projekt graficznego interfejsu u\IeC {\.z}ytkownika}{3}}
\@writefile{toc}{\contentsline {subsection}{\numberline {3.1}Wymagane funkcjonalno\IeC {\'s}ci}{3}}
\@writefile{toc}{\contentsline {subsection}{\numberline {3.2}Projekt interfejsu}{4}}
\@writefile{lof}{\contentsline {figure}{\numberline {2}{\ignorespaces Projekt interfejsu graficznego}}{4}}
\@writefile{toc}{\contentsline {section}{\numberline {4}Komunikacja komputera z p\IeC {\l }ytk\IeC {\k a} rozwojow\IeC {\k a}, protok\IeC {\'o}\IeC {\l } komunikacyjny}{4}}
\newlabel{sec:protokolKomunikacyjny}{{4}{4}}
\@writefile{lof}{\contentsline {figure}{\numberline {3}{\ignorespaces Ramka protoko\IeC {\l }u komunikacyjnego}}{4}}
\@writefile{toc}{\contentsline {section}{\numberline {5}Architektura programu}{5}}
\@writefile{toc}{\contentsline {subsection}{\numberline {5.1}Diagram klas}{6}}
\@writefile{lof}{\contentsline {figure}{\numberline {4}{\ignorespaces Diagram klas programu}}{6}}
\@writefile{toc}{\contentsline {section}{\numberline {6}Przyk\IeC {\l }adowe dzia\IeC {\l }anie programu}{7}}
\@writefile{lof}{\contentsline {figure}{\numberline {5}{\ignorespaces Przyk\IeC {\l }adowe dzia\IeC {\l }anie programu -- okno g\IeC {\l }\IeC {\'o}wne. Wizualizacja manipulatora}}{7}}
\@writefile{lof}{\contentsline {figure}{\numberline {6}{\ignorespaces Przyk\IeC {\l }adowe dzia\IeC {\l }anie programu -- okno g\IeC {\l }\IeC {\'o}wne. Wizualizacja dowolnego obiektu}}{7}}
\@writefile{lof}{\contentsline {figure}{\numberline {7}{\ignorespaces Przyk\IeC {\l }adowe dzia\IeC {\l }anie programu -- okno g\IeC {\l }\IeC {\'o}wne. Gra}}{8}}
\@writefile{lof}{\contentsline {figure}{\numberline {8}{\ignorespaces Przyk\IeC {\l }adowe dzia\IeC {\l }anie programu -- okno wykres\IeC {\'o}w}}{8}}
\@writefile{toc}{\contentsline {section}{\numberline {7}Opis element\IeC {\'o}w programu}{9}}
\@writefile{toc}{\contentsline {subsection}{\numberline {7.1}Otrzymywanie i przetwarzanie danych z sensor\IeC {\'o}w}{9}}
\@writefile{toc}{\contentsline {subsection}{\numberline {7.2}Usuwanie dryftu czujnik\IeC {\'o}w}{9}}
\@writefile{lof}{\contentsline {figure}{\numberline {9}{\ignorespaces Informacja o kalibracji}}{9}}
\newlabel{fig:kalibracja}{{9}{9}}
\@writefile{toc}{\contentsline {subsection}{\numberline {7.3}Orientacja obiektu}{9}}
\@writefile{toc}{\contentsline {subsection}{\numberline {7.4}Pozycja obiektu}{9}}
\@writefile{toc}{\contentsline {subsection}{\numberline {7.5}Okno wizualizacji 3D}{9}}
\@writefile{toc}{\contentsline {subsection}{\numberline {7.6}Okno wykres\IeC {\'o}w}{9}}
\@writefile{toc}{\contentsline {section}{\numberline {8}Podsumowanie}{10}}
